%YAML 1.1
%TAG !u! tag:unity3d.com,2011:
--- !u!1001 &4511604916213631385
PrefabInstance:
  m_ObjectHideFlags: 0
  serializedVersion: 2
  m_Modification:
    m_TransformParent: {fileID: 0}
    m_Modifications:
    - target: {fileID: 393880362399681902, guid: ac8867ba7e019ce4899622e0f8594038,
        type: 3}
      propertyPath: m_text
      value: 'When possible, place a crystal on a forest tile, which is burning.
        Then you will be able to create a fire elemental. Fire elementals deal a
        lot of damage, can attack from far away, and regenerate health while standing
        on burning tiles. However, on any other tile their health drops rapidly so
        you must be careful. Also, you are responsible for your forest and you cannot
        let too much of it be destroyed.


        For now, unleash your force and
        destroy the goblins to progress.'
      objectReference: {fileID: 0}
    - target: {fileID: 878344219078987429, guid: ac8867ba7e019ce4899622e0f8594038,
        type: 3}
      propertyPath: m_text
      value: 'Having both an air and a water elemental, you are now able to create
        a storm elemental by merging these two units. In order to use the merge ability,
        click on the big green button with water and fire mixing. It doesn''t matter,
        which unit uses the ability.


        The storm elemental can fly and has
        strong attacks. It can also set forest tiles on fire using the Thunderbolt
        ability. You will have to set the forest on fire to create a fire elemental
        and finish the tutorial'
      objectReference: {fileID: 0}
    - target: {fileID: 3590649689459707114, guid: ac8867ba7e019ce4899622e0f8594038,
        type: 3}
      propertyPath: m_Name
      value: TutorialWindow3
      objectReference: {fileID: 0}
    - target: {fileID: 6577264983955745270, guid: ac8867ba7e019ce4899622e0f8594038,
        type: 3}
      propertyPath: m_LocalPosition.x
      value: 0
      objectReference: {fileID: 0}
    - target: {fileID: 6577264983955745270, guid: ac8867ba7e019ce4899622e0f8594038,
        type: 3}
      propertyPath: m_LocalPosition.y
      value: 0
      objectReference: {fileID: 0}
    - target: {fileID: 6577264983955745270, guid: ac8867ba7e019ce4899622e0f8594038,
        type: 3}
      propertyPath: m_LocalPosition.z
      value: 0
      objectReference: {fileID: 0}
    - target: {fileID: 6577264983955745270, guid: ac8867ba7e019ce4899622e0f8594038,
        type: 3}
      propertyPath: m_LocalRotation.x
      value: 0
      objectReference: {fileID: 0}
    - target: {fileID: 6577264983955745270, guid: ac8867ba7e019ce4899622e0f8594038,
        type: 3}
      propertyPath: m_LocalRotation.y
      value: 0
      objectReference: {fileID: 0}
    - target: {fileID: 6577264983955745270, guid: ac8867ba7e019ce4899622e0f8594038,
        type: 3}
      propertyPath: m_LocalRotation.z
      value: 0
      objectReference: {fileID: 0}
    - target: {fileID: 6577264983955745270, guid: ac8867ba7e019ce4899622e0f8594038,
        type: 3}
      propertyPath: m_LocalRotation.w
      value: 1
      objectReference: {fileID: 0}
    - target: {fileID: 6577264983955745270, guid: ac8867ba7e019ce4899622e0f8594038,
        type: 3}
      propertyPath: m_RootOrder
      value: 0
      objectReference: {fileID: 0}
    - target: {fileID: 6577264983955745270, guid: ac8867ba7e019ce4899622e0f8594038,
        type: 3}
      propertyPath: m_LocalEulerAnglesHint.x
      value: 0
      objectReference: {fileID: 0}
    - target: {fileID: 6577264983955745270, guid: ac8867ba7e019ce4899622e0f8594038,
        type: 3}
      propertyPath: m_LocalEulerAnglesHint.y
      value: 0
      objectReference: {fileID: 0}
    - target: {fileID: 6577264983955745270, guid: ac8867ba7e019ce4899622e0f8594038,
        type: 3}
      propertyPath: m_LocalEulerAnglesHint.z
      value: 0
      objectReference: {fileID: 0}
    - target: {fileID: 6577264983955745270, guid: ac8867ba7e019ce4899622e0f8594038,
        type: 3}
      propertyPath: m_AnchoredPosition.x
      value: 559
      objectReference: {fileID: 0}
    - target: {fileID: 6577264983955745270, guid: ac8867ba7e019ce4899622e0f8594038,
        type: 3}
      propertyPath: m_AnchoredPosition.y
      value: 148
      objectReference: {fileID: 0}
    - target: {fileID: 6577264983955745270, guid: ac8867ba7e019ce4899622e0f8594038,
        type: 3}
      propertyPath: m_SizeDelta.x
      value: 943.32837
      objectReference: {fileID: 0}
    - target: {fileID: 6577264983955745270, guid: ac8867ba7e019ce4899622e0f8594038,
        type: 3}
      propertyPath: m_SizeDelta.y
      value: 747.7137
      objectReference: {fileID: 0}
    - target: {fileID: 6577264983955745270, guid: ac8867ba7e019ce4899622e0f8594038,
        type: 3}
      propertyPath: m_AnchorMin.x
      value: 0.5
      objectReference: {fileID: 0}
    - target: {fileID: 6577264983955745270, guid: ac8867ba7e019ce4899622e0f8594038,
        type: 3}
      propertyPath: m_AnchorMin.y
      value: 0.5
      objectReference: {fileID: 0}
    - target: {fileID: 6577264983955745270, guid: ac8867ba7e019ce4899622e0f8594038,
        type: 3}
      propertyPath: m_AnchorMax.x
      value: 0.5
      objectReference: {fileID: 0}
    - target: {fileID: 6577264983955745270, guid: ac8867ba7e019ce4899622e0f8594038,
        type: 3}
      propertyPath: m_AnchorMax.y
      value: 0.5
      objectReference: {fileID: 0}
    - target: {fileID: 6577264983955745270, guid: ac8867ba7e019ce4899622e0f8594038,
        type: 3}
      propertyPath: m_Pivot.x
      value: 0.5
      objectReference: {fileID: 0}
    - target: {fileID: 6577264983955745270, guid: ac8867ba7e019ce4899622e0f8594038,
        type: 3}
      propertyPath: m_Pivot.y
      value: 0.5
      objectReference: {fileID: 0}
    - target: {fileID: 6687754629228875020, guid: ac8867ba7e019ce4899622e0f8594038,
        type: 3}
      propertyPath: m_text
      value: 'Once you have an air elemental, you may use it to move the other crystal
        around the map. Get close to the lone crystal at the shore, and use the Windcarrier
        ability to make your air elemental carry it.


        In the next turn,
        move the elemental back to the tree, and place the crystal on the pond nearby,
        using the Windcarrier ability once again, so you can create a water elemental'
      objectReference: {fileID: 0}
    - target: {fileID: 8132666732179644669, guid: ac8867ba7e019ce4899622e0f8594038,
        type: 3}
      propertyPath: m_text
      value: "In this tutorial you will learn to create and use advanced units. For
        example, there are elementals which cannot spawn from a crystal, and require
        other elementals to be created. \n\nIn this tutorial, you will require an
        air and a water elemental. However, since you have a limited number of elementals,
        you must start by creating an air elemental."
      objectReference: {fileID: 0}
    m_RemovedComponents: []
  m_SourcePrefab: {fileID: 100100000, guid: ac8867ba7e019ce4899622e0f8594038, type: 3}
