%YAML 1.1
%TAG !u! tag:unity3d.com,2011:
--- !u!1001 &344958736751319031
PrefabInstance:
  m_ObjectHideFlags: 0
  serializedVersion: 2
  m_Modification:
    m_TransformParent: {fileID: 0}
    m_Modifications:
    - target: {fileID: 3590649689459707114, guid: ac8867ba7e019ce4899622e0f8594038,
        type: 3}
      propertyPath: m_Name
      value: TutorialWindow4
      objectReference: {fileID: 0}
    - target: {fileID: 6577264983955745270, guid: ac8867ba7e019ce4899622e0f8594038,
        type: 3}
      propertyPath: m_LocalPosition.x
      value: 0
      objectReference: {fileID: 0}
    - target: {fileID: 6577264983955745270, guid: ac8867ba7e019ce4899622e0f8594038,
        type: 3}
      propertyPath: m_LocalPosition.y
      value: 0
      objectReference: {fileID: 0}
    - target: {fileID: 6577264983955745270, guid: ac8867ba7e019ce4899622e0f8594038,
        type: 3}
      propertyPath: m_LocalPosition.z
      value: 0
      objectReference: {fileID: 0}
    - target: {fileID: 6577264983955745270, guid: ac8867ba7e019ce4899622e0f8594038,
        type: 3}
      propertyPath: m_LocalRotation.x
      value: 0
      objectReference: {fileID: 0}
    - target: {fileID: 6577264983955745270, guid: ac8867ba7e019ce4899622e0f8594038,
        type: 3}
      propertyPath: m_LocalRotation.y
      value: 0
      objectReference: {fileID: 0}
    - target: {fileID: 6577264983955745270, guid: ac8867ba7e019ce4899622e0f8594038,
        type: 3}
      propertyPath: m_LocalRotation.z
      value: 0
      objectReference: {fileID: 0}
    - target: {fileID: 6577264983955745270, guid: ac8867ba7e019ce4899622e0f8594038,
        type: 3}
      propertyPath: m_LocalRotation.w
      value: 1
      objectReference: {fileID: 0}
    - target: {fileID: 6577264983955745270, guid: ac8867ba7e019ce4899622e0f8594038,
        type: 3}
      propertyPath: m_RootOrder
      value: 0
      objectReference: {fileID: 0}
    - target: {fileID: 6577264983955745270, guid: ac8867ba7e019ce4899622e0f8594038,
        type: 3}
      propertyPath: m_LocalEulerAnglesHint.x
      value: 0
      objectReference: {fileID: 0}
    - target: {fileID: 6577264983955745270, guid: ac8867ba7e019ce4899622e0f8594038,
        type: 3}
      propertyPath: m_LocalEulerAnglesHint.y
      value: 0
      objectReference: {fileID: 0}
    - target: {fileID: 6577264983955745270, guid: ac8867ba7e019ce4899622e0f8594038,
        type: 3}
      propertyPath: m_LocalEulerAnglesHint.z
      value: 0
      objectReference: {fileID: 0}
    - target: {fileID: 6577264983955745270, guid: ac8867ba7e019ce4899622e0f8594038,
        type: 3}
      propertyPath: m_AnchoredPosition.x
      value: 0
      objectReference: {fileID: 0}
    - target: {fileID: 6577264983955745270, guid: ac8867ba7e019ce4899622e0f8594038,
        type: 3}
      propertyPath: m_AnchoredPosition.y
      value: 14
      objectReference: {fileID: 0}
    - target: {fileID: 6577264983955745270, guid: ac8867ba7e019ce4899622e0f8594038,
        type: 3}
      propertyPath: m_SizeDelta.x
      value: 943.32837
      objectReference: {fileID: 0}
    - target: {fileID: 6577264983955745270, guid: ac8867ba7e019ce4899622e0f8594038,
        type: 3}
      propertyPath: m_SizeDelta.y
      value: 747.7137
      objectReference: {fileID: 0}
    - target: {fileID: 6577264983955745270, guid: ac8867ba7e019ce4899622e0f8594038,
        type: 3}
      propertyPath: m_AnchorMin.x
      value: 0.5
      objectReference: {fileID: 0}
    - target: {fileID: 6577264983955745270, guid: ac8867ba7e019ce4899622e0f8594038,
        type: 3}
      propertyPath: m_AnchorMin.y
      value: 0.5
      objectReference: {fileID: 0}
    - target: {fileID: 6577264983955745270, guid: ac8867ba7e019ce4899622e0f8594038,
        type: 3}
      propertyPath: m_AnchorMax.x
      value: 0.5
      objectReference: {fileID: 0}
    - target: {fileID: 6577264983955745270, guid: ac8867ba7e019ce4899622e0f8594038,
        type: 3}
      propertyPath: m_AnchorMax.y
      value: 0.5
      objectReference: {fileID: 0}
    - target: {fileID: 6577264983955745270, guid: ac8867ba7e019ce4899622e0f8594038,
        type: 3}
      propertyPath: m_Pivot.x
      value: 0.5
      objectReference: {fileID: 0}
    - target: {fileID: 6577264983955745270, guid: ac8867ba7e019ce4899622e0f8594038,
        type: 3}
      propertyPath: m_Pivot.y
      value: 0.5
      objectReference: {fileID: 0}
    m_RemovedComponents: []
  m_SourcePrefab: {fileID: 100100000, guid: ac8867ba7e019ce4899622e0f8594038, type: 3}
