{
    "mapName": "q1",
    "hexes": [
        {
            "Q": 0,
            "R": 0,
            "S": 0,
            "TerrainType": 3,
            "FeatureType": 0,
            "effects": [],
            "objectOnHex": 1,
            "hasObject": false,
            "isWalkable": true,
            "isFlyable": true,
            "isSwimmable": false
        },
        {
            "Q": 0,
            "R": 1,
            "S": -1,
            "TerrainType": 3,
            "FeatureType": 0,
            "effects": [],
            "objectOnHex": 0,
            "hasObject": false,
            "isWalkable": true,
            "isFlyable": true,
            "isSwimmable": false
        },
        {
            "Q": 0,
            "R": 2,
            "S": -2,
            "TerrainType": 3,
            "FeatureType": 0,
            "effects": [],
            "objectOnHex": 0,
            "hasObject": false,
            "isWalkable": true,
            "isFlyable": true,
            "isSwimmable": false
        },
        {
            "Q": 0,
            "R": 3,
            "S": -3,
            "TerrainType": 2,
            "FeatureType": 0,
            "effects": [],
            "objectOnHex": 0,
            "hasObject": false,
            "isWalkable": false,
            "isFlyable": true,
            "isSwimmable": true
        },
        {
            "Q": 0,
            "R": 4,
            "S": -4,
            "TerrainType": 0,
            "FeatureType": 0,
            "effects": [],
            "objectOnHex": 0,
            "hasObject": false,
            "isWalkable": true,
            "isFlyable": true,
            "isSwimmable": false
        },
        {
            "Q": 0,
            "R": 5,
            "S": -5,
            "TerrainType": 0,
            "FeatureType": 0,
            "effects": [],
            "objectOnHex": 9,
            "hasObject": false,
            "isWalkable": true,
            "isFlyable": true,
            "isSwimmable": false
        },
        {
            "Q": 1,
            "R": 0,
            "S": -1,
            "TerrainType": 3,
            "FeatureType": 0,
            "effects": [],
            "objectOnHex": 0,
            "hasObject": false,
            "isWalkable": true,
            "isFlyable": true,
            "isSwimmable": false
        },
        {
            "Q": 1,
            "R": 1,
            "S": -2,
            "TerrainType": 3,
            "FeatureType": 0,
            "effects": [],
            "objectOnHex": 0,
            "hasObject": false,
            "isWalkable": true,
            "isFlyable": true,
            "isSwimmable": false
        },
        {
            "Q": 1,
            "R": 2,
            "S": -3,
            "TerrainType": 3,
            "FeatureType": 0,
            "effects": [],
            "objectOnHex": 0,
            "hasObject": false,
            "isWalkable": true,
            "isFlyable": true,
            "isSwimmable": false
        },
        {
            "Q": 1,
            "R": 3,
            "S": -4,
            "TerrainType": 2,
            "FeatureType": 0,
            "effects": [],
            "objectOnHex": 0,
            "hasObject": false,
            "isWalkable": false,
            "isFlyable": true,
            "isSwimmable": true
        },
        {
            "Q": 1,
            "R": 4,
            "S": -5,
            "TerrainType": 0,
            "FeatureType": 0,
            "effects": [],
            "objectOnHex": 0,
            "hasObject": false,
            "isWalkable": true,
            "isFlyable": true,
            "isSwimmable": false
        },
        {
            "Q": 1,
            "R": 5,
            "S": -6,
            "TerrainType": 0,
            "FeatureType": 0,
            "effects": [],
            "objectOnHex": 0,
            "hasObject": false,
            "isWalkable": true,
            "isFlyable": true,
            "isSwimmable": false
        },
        {
            "Q": 2,
            "R": 0,
            "S": -2,
            "TerrainType": 3,
            "FeatureType": 0,
            "effects": [],
            "objectOnHex": 0,
            "hasObject": false,
            "isWalkable": true,
            "isFlyable": true,
            "isSwimmable": false
        },
        {
            "Q": 2,
            "R": 1,
            "S": -3,
            "TerrainType": 3,
            "FeatureType": 0,
            "effects": [],
            "objectOnHex": 0,
            "hasObject": false,
            "isWalkable": true,
            "isFlyable": true,
            "isSwimmable": false
        },
        {
            "Q": 2,
            "R": 2,
            "S": -4,
            "TerrainType": 3,
            "FeatureType": 0,
            "effects": [],
            "objectOnHex": 5,
            "hasObject": false,
            "isWalkable": true,
            "isFlyable": true,
            "isSwimmable": false
        },
        {
            "Q": 2,
            "R": 3,
            "S": -5,
            "TerrainType": 2,
            "FeatureType": 0,
            "effects": [],
            "objectOnHex": 0,
            "hasObject": false,
            "isWalkable": false,
            "isFlyable": true,
            "isSwimmable": true
        },
        {
            "Q": 2,
            "R": 4,
            "S": -6,
            "TerrainType": 2,
            "FeatureType": 0,
            "effects": [],
            "objectOnHex": 0,
            "hasObject": false,
            "isWalkable": false,
            "isFlyable": true,
            "isSwimmable": true
        },
        {
            "Q": 2,
            "R": 5,
            "S": -7,
            "TerrainType": 2,
            "FeatureType": 0,
            "effects": [],
            "objectOnHex": 0,
            "hasObject": false,
            "isWalkable": false,
            "isFlyable": true,
            "isSwimmable": true
        },
        {
            "Q": 3,
            "R": 0,
            "S": -3,
            "TerrainType": 3,
            "FeatureType": 0,
            "effects": [],
            "objectOnHex": 0,
            "hasObject": false,
            "isWalkable": true,
            "isFlyable": true,
            "isSwimmable": false
        },
        {
            "Q": 3,
            "R": 1,
            "S": -4,
            "TerrainType": 3,
            "FeatureType": 0,
            "effects": [],
            "objectOnHex": 0,
            "hasObject": false,
            "isWalkable": true,
            "isFlyable": true,
            "isSwimmable": false
        },
        {
            "Q": 3,
            "R": 2,
            "S": -5,
            "TerrainType": 3,
            "FeatureType": 0,
            "effects": [],
            "objectOnHex": 0,
            "hasObject": false,
            "isWalkable": true,
            "isFlyable": true,
            "isSwimmable": false
        },
        {
            "Q": 3,
            "R": 3,
            "S": -6,
            "TerrainType": 3,
            "FeatureType": 0,
            "effects": [],
            "objectOnHex": 0,
            "hasObject": false,
            "isWalkable": true,
            "isFlyable": true,
            "isSwimmable": false
        },
        {
            "Q": 3,
            "R": 4,
            "S": -7,
            "TerrainType": 3,
            "FeatureType": 0,
            "effects": [],
            "objectOnHex": 0,
            "hasObject": false,
            "isWalkable": true,
            "isFlyable": true,
            "isSwimmable": false
        },
        {
            "Q": 3,
            "R": 5,
            "S": -8,
            "TerrainType": 2,
            "FeatureType": 0,
            "effects": [],
            "objectOnHex": 0,
            "hasObject": false,
            "isWalkable": false,
            "isFlyable": true,
            "isSwimmable": true
        },
        {
            "Q": 4,
            "R": 0,
            "S": -4,
            "TerrainType": 3,
            "FeatureType": 0,
            "effects": [],
            "objectOnHex": 0,
            "hasObject": false,
            "isWalkable": true,
            "isFlyable": true,
            "isSwimmable": false
        },
        {
            "Q": 4,
            "R": 1,
            "S": -5,
            "TerrainType": 3,
            "FeatureType": 0,
            "effects": [],
            "objectOnHex": 0,
            "hasObject": false,
            "isWalkable": true,
            "isFlyable": true,
            "isSwimmable": false
        },
        {
            "Q": 4,
            "R": 2,
            "S": -6,
            "TerrainType": 3,
            "FeatureType": 0,
            "effects": [],
            "objectOnHex": 0,
            "hasObject": false,
            "isWalkable": true,
            "isFlyable": true,
            "isSwimmable": false
        },
        {
            "Q": 4,
            "R": 3,
            "S": -7,
            "TerrainType": 3,
            "FeatureType": 0,
            "effects": [],
            "objectOnHex": 0,
            "hasObject": false,
            "isWalkable": true,
            "isFlyable": true,
            "isSwimmable": false
        },
        {
            "Q": 4,
            "R": 4,
            "S": -8,
            "TerrainType": 3,
            "FeatureType": 0,
            "effects": [],
            "objectOnHex": 0,
            "hasObject": false,
            "isWalkable": true,
            "isFlyable": true,
            "isSwimmable": false
        },
        {
            "Q": 4,
            "R": 5,
            "S": -9,
            "TerrainType": 3,
            "FeatureType": 0,
            "effects": [],
            "objectOnHex": 0,
            "hasObject": false,
            "isWalkable": true,
            "isFlyable": true,
            "isSwimmable": false
        },
        {
            "Q": 5,
            "R": 0,
            "S": -5,
            "TerrainType": 3,
            "FeatureType": 0,
            "effects": [],
            "objectOnHex": 0,
            "hasObject": false,
            "isWalkable": true,
            "isFlyable": true,
            "isSwimmable": false
        },
        {
            "Q": 5,
            "R": 1,
            "S": -6,
            "TerrainType": 3,
            "FeatureType": 0,
            "effects": [],
            "objectOnHex": 0,
            "hasObject": false,
            "isWalkable": true,
            "isFlyable": true,
            "isSwimmable": false
        },
        {
            "Q": 5,
            "R": 2,
            "S": -7,
            "TerrainType": 3,
            "FeatureType": 0,
            "effects": [],
            "objectOnHex": 0,
            "hasObject": false,
            "isWalkable": true,
            "isFlyable": true,
            "isSwimmable": false
        },
        {
            "Q": 5,
            "R": 3,
            "S": -8,
            "TerrainType": 3,
            "FeatureType": 0,
            "effects": [],
            "objectOnHex": 0,
            "hasObject": false,
            "isWalkable": true,
            "isFlyable": true,
            "isSwimmable": false
        },
        {
            "Q": 5,
            "R": 4,
            "S": -9,
            "TerrainType": 3,
            "FeatureType": 0,
            "effects": [],
            "objectOnHex": 0,
            "hasObject": false,
            "isWalkable": true,
            "isFlyable": true,
            "isSwimmable": false
        },
        {
            "Q": 5,
            "R": 5,
            "S": -10,
            "TerrainType": 3,
            "FeatureType": 0,
            "effects": [],
            "objectOnHex": 0,
            "hasObject": false,
            "isWalkable": true,
            "isFlyable": true,
            "isSwimmable": false
        }
    ],
    "columnsNumber": 6,
    "rowsNumber": 6
}