{
    "mapName": "t2",
    "hexes": [
        {
            "Q": 0,
            "R": 0,
            "S": 0,
            "TerrainType": 0,
            "FeatureType": 3,
            "effects": [],
            "objectOnHex": 14,
            "hasObject": true,
            "isWalkable": true,
            "isFlyable": true,
            "isSwimmable": false
        },
        {
            "Q": 0,
            "R": 1,
            "S": -1,
            "TerrainType": 0,
            "FeatureType": 3,
            "effects": [],
            "objectOnHex": 14,
            "hasObject": true,
            "isWalkable": true,
            "isFlyable": true,
            "isSwimmable": false
        },
        {
            "Q": 0,
            "R": 2,
            "S": -2,
            "TerrainType": 0,
            "FeatureType": 3,
            "effects": [],
            "objectOnHex": 14,
            "hasObject": true,
            "isWalkable": true,
            "isFlyable": true,
            "isSwimmable": false
        },
        {
            "Q": 0,
            "R": 3,
            "S": -3,
            "TerrainType": 0,
            "FeatureType": 0,
            "effects": [],
            "objectOnHex": 0,
            "hasObject": false,
            "isWalkable": true,
            "isFlyable": true,
            "isSwimmable": false
        },
        {
            "Q": 0,
            "R": 4,
            "S": -4,
            "TerrainType": 0,
            "FeatureType": 1,
            "effects": [],
            "objectOnHex": 0,
            "hasObject": false,
            "isWalkable": true,
            "isFlyable": true,
            "isSwimmable": false
        },
        {
            "Q": 0,
            "R": 5,
            "S": -5,
            "TerrainType": 0,
            "FeatureType": 0,
            "effects": [],
            "objectOnHex": 0,
            "hasObject": false,
            "isWalkable": true,
            "isFlyable": true,
            "isSwimmable": false
        },
        {
            "Q": 0,
            "R": 6,
            "S": -6,
            "TerrainType": 0,
            "FeatureType": 1,
            "effects": [],
            "objectOnHex": 0,
            "hasObject": false,
            "isWalkable": true,
            "isFlyable": true,
            "isSwimmable": false
        },
        {
            "Q": 0,
            "R": 7,
            "S": -7,
            "TerrainType": 0,
            "FeatureType": 1,
            "effects": [],
            "objectOnHex": 0,
            "hasObject": false,
            "isWalkable": true,
            "isFlyable": true,
            "isSwimmable": false
        },
        {
            "Q": 0,
            "R": 8,
            "S": -8,
            "TerrainType": 0,
            "FeatureType": 1,
            "effects": [],
            "objectOnHex": 0,
            "hasObject": false,
            "isWalkable": true,
            "isFlyable": true,
            "isSwimmable": false
        },
        {
            "Q": 0,
            "R": 9,
            "S": -9,
            "TerrainType": 0,
            "FeatureType": 1,
            "effects": [],
            "objectOnHex": 0,
            "hasObject": false,
            "isWalkable": true,
            "isFlyable": true,
            "isSwimmable": false
        },
        {
            "Q": 0,
            "R": 10,
            "S": -10,
            "TerrainType": 3,
            "FeatureType": 0,
            "effects": [],
            "objectOnHex": 0,
            "hasObject": false,
            "isWalkable": true,
            "isFlyable": true,
            "isSwimmable": false
        },
        {
            "Q": 0,
            "R": 11,
            "S": -11,
            "TerrainType": 0,
            "FeatureType": 0,
            "effects": [],
            "objectOnHex": 0,
            "hasObject": false,
            "isWalkable": true,
            "isFlyable": true,
            "isSwimmable": false
        },
        {
            "Q": 1,
            "R": 0,
            "S": -1,
            "TerrainType": 0,
            "FeatureType": 3,
            "effects": [],
            "objectOnHex": 14,
            "hasObject": true,
            "isWalkable": true,
            "isFlyable": true,
            "isSwimmable": false
        },
        {
            "Q": 1,
            "R": 1,
            "S": -2,
            "TerrainType": 0,
            "FeatureType": 3,
            "effects": [],
            "objectOnHex": 14,
            "hasObject": true,
            "isWalkable": true,
            "isFlyable": true,
            "isSwimmable": false
        },
        {
            "Q": 1,
            "R": 2,
            "S": -3,
            "TerrainType": 0,
            "FeatureType": 3,
            "effects": [],
            "objectOnHex": 14,
            "hasObject": true,
            "isWalkable": true,
            "isFlyable": true,
            "isSwimmable": false
        },
        {
            "Q": 1,
            "R": 3,
            "S": -4,
            "TerrainType": 0,
            "FeatureType": 0,
            "effects": [],
            "objectOnHex": 0,
            "hasObject": false,
            "isWalkable": true,
            "isFlyable": true,
            "isSwimmable": false
        },
        {
            "Q": 1,
            "R": 4,
            "S": -5,
            "TerrainType": 0,
            "FeatureType": 0,
            "effects": [],
            "objectOnHex": 0,
            "hasObject": false,
            "isWalkable": true,
            "isFlyable": true,
            "isSwimmable": false
        },
        {
            "Q": 1,
            "R": 5,
            "S": -6,
            "TerrainType": 0,
            "FeatureType": 1,
            "effects": [],
            "objectOnHex": 0,
            "hasObject": false,
            "isWalkable": true,
            "isFlyable": true,
            "isSwimmable": false
        },
        {
            "Q": 1,
            "R": 6,
            "S": -7,
            "TerrainType": 0,
            "FeatureType": 0,
            "effects": [],
            "objectOnHex": 0,
            "hasObject": false,
            "isWalkable": true,
            "isFlyable": true,
            "isSwimmable": false
        },
        {
            "Q": 1,
            "R": 7,
            "S": -8,
            "TerrainType": 0,
            "FeatureType": 0,
            "effects": [],
            "objectOnHex": 0,
            "hasObject": false,
            "isWalkable": true,
            "isFlyable": true,
            "isSwimmable": false
        },
        {
            "Q": 1,
            "R": 8,
            "S": -9,
            "TerrainType": 3,
            "FeatureType": 0,
            "effects": [],
            "objectOnHex": 0,
            "hasObject": false,
            "isWalkable": true,
            "isFlyable": true,
            "isSwimmable": false
        },
        {
            "Q": 1,
            "R": 9,
            "S": -10,
            "TerrainType": 3,
            "FeatureType": 0,
            "effects": [],
            "objectOnHex": 0,
            "hasObject": false,
            "isWalkable": true,
            "isFlyable": true,
            "isSwimmable": false
        },
        {
            "Q": 1,
            "R": 10,
            "S": -11,
            "TerrainType": 3,
            "FeatureType": 0,
            "effects": [],
            "objectOnHex": 0,
            "hasObject": false,
            "isWalkable": true,
            "isFlyable": true,
            "isSwimmable": false
        },
        {
            "Q": 1,
            "R": 11,
            "S": -12,
            "TerrainType": 3,
            "FeatureType": 0,
            "effects": [],
            "objectOnHex": 0,
            "hasObject": false,
            "isWalkable": true,
            "isFlyable": true,
            "isSwimmable": false
        },
        {
            "Q": 2,
            "R": 0,
            "S": -2,
            "TerrainType": 0,
            "FeatureType": 3,
            "effects": [],
            "objectOnHex": 14,
            "hasObject": true,
            "isWalkable": true,
            "isFlyable": true,
            "isSwimmable": false
        },
        {
            "Q": 2,
            "R": 1,
            "S": -3,
            "TerrainType": 0,
            "FeatureType": 0,
            "effects": [],
            "objectOnHex": 0,
            "hasObject": false,
            "isWalkable": true,
            "isFlyable": true,
            "isSwimmable": false
        },
        {
            "Q": 2,
            "R": 2,
            "S": -4,
            "TerrainType": 0,
            "FeatureType": 0,
            "effects": [],
            "objectOnHex": 0,
            "hasObject": false,
            "isWalkable": true,
            "isFlyable": true,
            "isSwimmable": false
        },
        {
            "Q": 2,
            "R": 3,
            "S": -5,
            "TerrainType": 0,
            "FeatureType": 0,
            "effects": [],
            "objectOnHex": 0,
            "hasObject": false,
            "isWalkable": true,
            "isFlyable": true,
            "isSwimmable": false
        },
        {
            "Q": 2,
            "R": 4,
            "S": -6,
            "TerrainType": 0,
            "FeatureType": 0,
            "effects": [],
            "objectOnHex": 0,
            "hasObject": false,
            "isWalkable": true,
            "isFlyable": true,
            "isSwimmable": false
        },
        {
            "Q": 2,
            "R": 5,
            "S": -7,
            "TerrainType": 0,
            "FeatureType": 0,
            "effects": [],
            "objectOnHex": 0,
            "hasObject": false,
            "isWalkable": true,
            "isFlyable": true,
            "isSwimmable": false
        },
        {
            "Q": 2,
            "R": 6,
            "S": -8,
            "TerrainType": 0,
            "FeatureType": 0,
            "effects": [],
            "objectOnHex": 0,
            "hasObject": false,
            "isWalkable": true,
            "isFlyable": true,
            "isSwimmable": false
        },
        {
            "Q": 2,
            "R": 7,
            "S": -9,
            "TerrainType": 3,
            "FeatureType": 0,
            "effects": [],
            "objectOnHex": 0,
            "hasObject": false,
            "isWalkable": true,
            "isFlyable": true,
            "isSwimmable": false
        },
        {
            "Q": 2,
            "R": 8,
            "S": -10,
            "TerrainType": 3,
            "FeatureType": 0,
            "effects": [],
            "objectOnHex": 0,
            "hasObject": false,
            "isWalkable": true,
            "isFlyable": true,
            "isSwimmable": false
        },
        {
            "Q": 2,
            "R": 9,
            "S": -11,
            "TerrainType": 3,
            "FeatureType": 2,
            "effects": [],
            "objectOnHex": 12,
            "hasObject": true,
            "isWalkable": true,
            "isFlyable": true,
            "isSwimmable": false
        },
        {
            "Q": 2,
            "R": 10,
            "S": -12,
            "TerrainType": 3,
            "FeatureType": 0,
            "effects": [],
            "objectOnHex": 0,
            "hasObject": false,
            "isWalkable": true,
            "isFlyable": true,
            "isSwimmable": false
        },
        {
            "Q": 2,
            "R": 11,
            "S": -13,
            "TerrainType": 2,
            "FeatureType": 0,
            "effects": [],
            "objectOnHex": 0,
            "hasObject": false,
            "isWalkable": false,
            "isFlyable": true,
            "isSwimmable": true
        },
        {
            "Q": 3,
            "R": 0,
            "S": -3,
            "TerrainType": 0,
            "FeatureType": 1,
            "effects": [],
            "objectOnHex": 0,
            "hasObject": false,
            "isWalkable": true,
            "isFlyable": true,
            "isSwimmable": false
        },
        {
            "Q": 3,
            "R": 1,
            "S": -4,
            "TerrainType": 0,
            "FeatureType": 0,
            "effects": [],
            "objectOnHex": 0,
            "hasObject": false,
            "isWalkable": true,
            "isFlyable": true,
            "isSwimmable": false
        },
        {
            "Q": 3,
            "R": 2,
            "S": -5,
            "TerrainType": 0,
            "FeatureType": 0,
            "effects": [],
            "objectOnHex": 1,
            "hasObject": false,
            "isWalkable": true,
            "isFlyable": true,
            "isSwimmable": false
        },
        {
            "Q": 3,
            "R": 3,
            "S": -6,
            "TerrainType": 0,
            "FeatureType": 0,
            "effects": [],
            "objectOnHex": 0,
            "hasObject": false,
            "isWalkable": true,
            "isFlyable": true,
            "isSwimmable": false
        },
        {
            "Q": 3,
            "R": 4,
            "S": -7,
            "TerrainType": 0,
            "FeatureType": 0,
            "effects": [],
            "objectOnHex": 0,
            "hasObject": false,
            "isWalkable": true,
            "isFlyable": true,
            "isSwimmable": false
        },
        {
            "Q": 3,
            "R": 5,
            "S": -8,
            "TerrainType": 0,
            "FeatureType": 2,
            "effects": [],
            "objectOnHex": 12,
            "hasObject": true,
            "isWalkable": true,
            "isFlyable": true,
            "isSwimmable": false
        },
        {
            "Q": 3,
            "R": 6,
            "S": -9,
            "TerrainType": 0,
            "FeatureType": 1,
            "effects": [],
            "objectOnHex": 0,
            "hasObject": false,
            "isWalkable": true,
            "isFlyable": true,
            "isSwimmable": false
        },
        {
            "Q": 3,
            "R": 7,
            "S": -10,
            "TerrainType": 3,
            "FeatureType": 0,
            "effects": [],
            "objectOnHex": 0,
            "hasObject": false,
            "isWalkable": true,
            "isFlyable": true,
            "isSwimmable": false
        },
        {
            "Q": 3,
            "R": 8,
            "S": -11,
            "TerrainType": 3,
            "FeatureType": 0,
            "effects": [],
            "objectOnHex": 0,
            "hasObject": false,
            "isWalkable": true,
            "isFlyable": true,
            "isSwimmable": false
        },
        {
            "Q": 3,
            "R": 9,
            "S": -12,
            "TerrainType": 2,
            "FeatureType": 0,
            "effects": [],
            "objectOnHex": 0,
            "hasObject": false,
            "isWalkable": false,
            "isFlyable": true,
            "isSwimmable": true
        },
        {
            "Q": 3,
            "R": 10,
            "S": -13,
            "TerrainType": 2,
            "FeatureType": 0,
            "effects": [],
            "objectOnHex": 0,
            "hasObject": false,
            "isWalkable": false,
            "isFlyable": true,
            "isSwimmable": true
        },
        {
            "Q": 3,
            "R": 11,
            "S": -14,
            "TerrainType": 2,
            "FeatureType": 0,
            "effects": [],
            "objectOnHex": 0,
            "hasObject": false,
            "isWalkable": false,
            "isFlyable": true,
            "isSwimmable": true
        },
        {
            "Q": 4,
            "R": 0,
            "S": -4,
            "TerrainType": 0,
            "FeatureType": 1,
            "effects": [],
            "objectOnHex": 0,
            "hasObject": false,
            "isWalkable": true,
            "isFlyable": true,
            "isSwimmable": false
        },
        {
            "Q": 4,
            "R": 1,
            "S": -5,
            "TerrainType": 0,
            "FeatureType": 0,
            "effects": [],
            "objectOnHex": 0,
            "hasObject": false,
            "isWalkable": true,
            "isFlyable": true,
            "isSwimmable": false
        },
        {
            "Q": 4,
            "R": 2,
            "S": -6,
            "TerrainType": 0,
            "FeatureType": 0,
            "effects": [],
            "objectOnHex": 0,
            "hasObject": false,
            "isWalkable": true,
            "isFlyable": true,
            "isSwimmable": false
        },
        {
            "Q": 4,
            "R": 3,
            "S": -7,
            "TerrainType": 0,
            "FeatureType": 0,
            "effects": [],
            "objectOnHex": 0,
            "hasObject": false,
            "isWalkable": true,
            "isFlyable": true,
            "isSwimmable": false
        },
        {
            "Q": 4,
            "R": 4,
            "S": -8,
            "TerrainType": 0,
            "FeatureType": 0,
            "effects": [],
            "objectOnHex": 0,
            "hasObject": false,
            "isWalkable": true,
            "isFlyable": true,
            "isSwimmable": false
        },
        {
            "Q": 4,
            "R": 5,
            "S": -9,
            "TerrainType": 0,
            "FeatureType": 0,
            "effects": [],
            "objectOnHex": 0,
            "hasObject": false,
            "isWalkable": true,
            "isFlyable": true,
            "isSwimmable": false
        },
        {
            "Q": 4,
            "R": 6,
            "S": -10,
            "TerrainType": 3,
            "FeatureType": 0,
            "effects": [],
            "objectOnHex": 0,
            "hasObject": false,
            "isWalkable": true,
            "isFlyable": true,
            "isSwimmable": false
        },
        {
            "Q": 4,
            "R": 7,
            "S": -11,
            "TerrainType": 3,
            "FeatureType": 0,
            "effects": [],
            "objectOnHex": 0,
            "hasObject": false,
            "isWalkable": true,
            "isFlyable": true,
            "isSwimmable": false
        },
        {
            "Q": 4,
            "R": 8,
            "S": -12,
            "TerrainType": 2,
            "FeatureType": 0,
            "effects": [],
            "objectOnHex": 0,
            "hasObject": false,
            "isWalkable": false,
            "isFlyable": true,
            "isSwimmable": true
        },
        {
            "Q": 4,
            "R": 9,
            "S": -13,
            "TerrainType": 2,
            "FeatureType": 0,
            "effects": [],
            "objectOnHex": 0,
            "hasObject": false,
            "isWalkable": false,
            "isFlyable": true,
            "isSwimmable": true
        },
        {
            "Q": 4,
            "R": 10,
            "S": -14,
            "TerrainType": 2,
            "FeatureType": 0,
            "effects": [],
            "objectOnHex": 0,
            "hasObject": false,
            "isWalkable": false,
            "isFlyable": true,
            "isSwimmable": true
        },
        {
            "Q": 4,
            "R": 11,
            "S": -15,
            "TerrainType": 2,
            "FeatureType": 0,
            "effects": [],
            "objectOnHex": 0,
            "hasObject": false,
            "isWalkable": false,
            "isFlyable": true,
            "isSwimmable": true
        },
        {
            "Q": 5,
            "R": 0,
            "S": -5,
            "TerrainType": 0,
            "FeatureType": 0,
            "effects": [],
            "objectOnHex": 0,
            "hasObject": false,
            "isWalkable": true,
            "isFlyable": true,
            "isSwimmable": false
        },
        {
            "Q": 5,
            "R": 1,
            "S": -6,
            "TerrainType": 0,
            "FeatureType": 1,
            "effects": [],
            "objectOnHex": 0,
            "hasObject": false,
            "isWalkable": true,
            "isFlyable": true,
            "isSwimmable": false
        },
        {
            "Q": 5,
            "R": 2,
            "S": -7,
            "TerrainType": 0,
            "FeatureType": 0,
            "effects": [],
            "objectOnHex": 0,
            "hasObject": false,
            "isWalkable": true,
            "isFlyable": true,
            "isSwimmable": false
        },
        {
            "Q": 5,
            "R": 3,
            "S": -8,
            "TerrainType": 0,
            "FeatureType": 0,
            "effects": [],
            "objectOnHex": 0,
            "hasObject": false,
            "isWalkable": true,
            "isFlyable": true,
            "isSwimmable": false
        },
        {
            "Q": 5,
            "R": 4,
            "S": -9,
            "TerrainType": 0,
            "FeatureType": 0,
            "effects": [],
            "objectOnHex": 0,
            "hasObject": false,
            "isWalkable": true,
            "isFlyable": true,
            "isSwimmable": false
        },
        {
            "Q": 5,
            "R": 5,
            "S": -10,
            "TerrainType": 3,
            "FeatureType": 0,
            "effects": [],
            "objectOnHex": 0,
            "hasObject": false,
            "isWalkable": true,
            "isFlyable": true,
            "isSwimmable": false
        },
        {
            "Q": 5,
            "R": 6,
            "S": -11,
            "TerrainType": 3,
            "FeatureType": 0,
            "effects": [],
            "objectOnHex": 0,
            "hasObject": false,
            "isWalkable": true,
            "isFlyable": true,
            "isSwimmable": false
        },
        {
            "Q": 5,
            "R": 7,
            "S": -12,
            "TerrainType": 3,
            "FeatureType": 0,
            "effects": [],
            "objectOnHex": 0,
            "hasObject": false,
            "isWalkable": true,
            "isFlyable": true,
            "isSwimmable": false
        },
        {
            "Q": 5,
            "R": 8,
            "S": -13,
            "TerrainType": 2,
            "FeatureType": 0,
            "effects": [],
            "objectOnHex": 0,
            "hasObject": false,
            "isWalkable": false,
            "isFlyable": true,
            "isSwimmable": true
        },
        {
            "Q": 5,
            "R": 9,
            "S": -14,
            "TerrainType": 2,
            "FeatureType": 0,
            "effects": [],
            "objectOnHex": 0,
            "hasObject": false,
            "isWalkable": false,
            "isFlyable": true,
            "isSwimmable": true
        },
        {
            "Q": 5,
            "R": 10,
            "S": -15,
            "TerrainType": 2,
            "FeatureType": 0,
            "effects": [],
            "objectOnHex": 0,
            "hasObject": false,
            "isWalkable": false,
            "isFlyable": true,
            "isSwimmable": true
        },
        {
            "Q": 5,
            "R": 11,
            "S": -16,
            "TerrainType": 2,
            "FeatureType": 0,
            "effects": [],
            "objectOnHex": 0,
            "hasObject": false,
            "isWalkable": false,
            "isFlyable": true,
            "isSwimmable": true
        },
        {
            "Q": 6,
            "R": 0,
            "S": -6,
            "TerrainType": 0,
            "FeatureType": 1,
            "effects": [],
            "objectOnHex": 0,
            "hasObject": false,
            "isWalkable": true,
            "isFlyable": true,
            "isSwimmable": false
        },
        {
            "Q": 6,
            "R": 1,
            "S": -7,
            "TerrainType": 0,
            "FeatureType": 1,
            "effects": [],
            "objectOnHex": 0,
            "hasObject": false,
            "isWalkable": true,
            "isFlyable": true,
            "isSwimmable": false
        },
        {
            "Q": 6,
            "R": 2,
            "S": -8,
            "TerrainType": 0,
            "FeatureType": 2,
            "effects": [],
            "objectOnHex": 12,
            "hasObject": true,
            "isWalkable": true,
            "isFlyable": true,
            "isSwimmable": false
        },
        {
            "Q": 6,
            "R": 3,
            "S": -9,
            "TerrainType": 0,
            "FeatureType": 0,
            "effects": [],
            "objectOnHex": 0,
            "hasObject": false,
            "isWalkable": true,
            "isFlyable": true,
            "isSwimmable": false
        },
        {
            "Q": 6,
            "R": 4,
            "S": -10,
            "TerrainType": 3,
            "FeatureType": 0,
            "effects": [],
            "objectOnHex": 0,
            "hasObject": false,
            "isWalkable": true,
            "isFlyable": true,
            "isSwimmable": false
        },
        {
            "Q": 6,
            "R": 5,
            "S": -11,
            "TerrainType": 3,
            "FeatureType": 0,
            "effects": [],
            "objectOnHex": 0,
            "hasObject": false,
            "isWalkable": true,
            "isFlyable": true,
            "isSwimmable": false
        },
        {
            "Q": 6,
            "R": 6,
            "S": -12,
            "TerrainType": 2,
            "FeatureType": 0,
            "effects": [],
            "objectOnHex": 3,
            "hasObject": false,
            "isWalkable": false,
            "isFlyable": true,
            "isSwimmable": true
        },
        {
            "Q": 6,
            "R": 7,
            "S": -13,
            "TerrainType": 2,
            "FeatureType": 0,
            "effects": [],
            "objectOnHex": 0,
            "hasObject": false,
            "isWalkable": false,
            "isFlyable": true,
            "isSwimmable": true
        },
        {
            "Q": 6,
            "R": 8,
            "S": -14,
            "TerrainType": 2,
            "FeatureType": 0,
            "effects": [],
            "objectOnHex": 0,
            "hasObject": false,
            "isWalkable": false,
            "isFlyable": true,
            "isSwimmable": true
        },
        {
            "Q": 6,
            "R": 9,
            "S": -15,
            "TerrainType": 2,
            "FeatureType": 0,
            "effects": [],
            "objectOnHex": 0,
            "hasObject": false,
            "isWalkable": false,
            "isFlyable": true,
            "isSwimmable": true
        },
        {
            "Q": 6,
            "R": 10,
            "S": -16,
            "TerrainType": 2,
            "FeatureType": 0,
            "effects": [],
            "objectOnHex": 0,
            "hasObject": false,
            "isWalkable": false,
            "isFlyable": true,
            "isSwimmable": true
        },
        {
            "Q": 6,
            "R": 11,
            "S": -17,
            "TerrainType": 3,
            "FeatureType": 0,
            "effects": [],
            "objectOnHex": 0,
            "hasObject": false,
            "isWalkable": true,
            "isFlyable": true,
            "isSwimmable": false
        },
        {
            "Q": 7,
            "R": 0,
            "S": -7,
            "TerrainType": 0,
            "FeatureType": 0,
            "effects": [],
            "objectOnHex": 0,
            "hasObject": false,
            "isWalkable": true,
            "isFlyable": true,
            "isSwimmable": false
        },
        {
            "Q": 7,
            "R": 1,
            "S": -8,
            "TerrainType": 0,
            "FeatureType": 0,
            "effects": [],
            "objectOnHex": 0,
            "hasObject": false,
            "isWalkable": true,
            "isFlyable": true,
            "isSwimmable": false
        },
        {
            "Q": 7,
            "R": 2,
            "S": -9,
            "TerrainType": 0,
            "FeatureType": 1,
            "effects": [],
            "objectOnHex": 0,
            "hasObject": false,
            "isWalkable": true,
            "isFlyable": true,
            "isSwimmable": false
        },
        {
            "Q": 7,
            "R": 3,
            "S": -10,
            "TerrainType": 3,
            "FeatureType": 0,
            "effects": [],
            "objectOnHex": 0,
            "hasObject": false,
            "isWalkable": true,
            "isFlyable": true,
            "isSwimmable": false
        },
        {
            "Q": 7,
            "R": 4,
            "S": -11,
            "TerrainType": 3,
            "FeatureType": 0,
            "effects": [],
            "objectOnHex": 0,
            "hasObject": false,
            "isWalkable": true,
            "isFlyable": true,
            "isSwimmable": false
        },
        {
            "Q": 7,
            "R": 5,
            "S": -12,
            "TerrainType": 2,
            "FeatureType": 0,
            "effects": [],
            "objectOnHex": 0,
            "hasObject": false,
            "isWalkable": false,
            "isFlyable": true,
            "isSwimmable": true
        },
        {
            "Q": 7,
            "R": 6,
            "S": -13,
            "TerrainType": 2,
            "FeatureType": 0,
            "effects": [],
            "objectOnHex": 0,
            "hasObject": false,
            "isWalkable": false,
            "isFlyable": true,
            "isSwimmable": true
        },
        {
            "Q": 7,
            "R": 7,
            "S": -14,
            "TerrainType": 2,
            "FeatureType": 0,
            "effects": [],
            "objectOnHex": 0,
            "hasObject": false,
            "isWalkable": false,
            "isFlyable": true,
            "isSwimmable": true
        },
        {
            "Q": 7,
            "R": 8,
            "S": -15,
            "TerrainType": 2,
            "FeatureType": 0,
            "effects": [],
            "objectOnHex": 0,
            "hasObject": false,
            "isWalkable": false,
            "isFlyable": true,
            "isSwimmable": true
        },
        {
            "Q": 7,
            "R": 9,
            "S": -16,
            "TerrainType": 2,
            "FeatureType": 0,
            "effects": [],
            "objectOnHex": 0,
            "hasObject": false,
            "isWalkable": false,
            "isFlyable": true,
            "isSwimmable": true
        },
        {
            "Q": 7,
            "R": 10,
            "S": -17,
            "TerrainType": 3,
            "FeatureType": 0,
            "effects": [],
            "objectOnHex": 0,
            "hasObject": false,
            "isWalkable": true,
            "isFlyable": true,
            "isSwimmable": false
        },
        {
            "Q": 7,
            "R": 11,
            "S": -18,
            "TerrainType": 3,
            "FeatureType": 0,
            "effects": [],
            "objectOnHex": 0,
            "hasObject": false,
            "isWalkable": true,
            "isFlyable": true,
            "isSwimmable": false
        },
        {
            "Q": 8,
            "R": 0,
            "S": -8,
            "TerrainType": 0,
            "FeatureType": 0,
            "effects": [],
            "objectOnHex": 0,
            "hasObject": false,
            "isWalkable": true,
            "isFlyable": true,
            "isSwimmable": false
        },
        {
            "Q": 8,
            "R": 1,
            "S": -9,
            "TerrainType": 0,
            "FeatureType": 0,
            "effects": [],
            "objectOnHex": 0,
            "hasObject": false,
            "isWalkable": true,
            "isFlyable": true,
            "isSwimmable": false
        },
        {
            "Q": 8,
            "R": 2,
            "S": -10,
            "TerrainType": 3,
            "FeatureType": 0,
            "effects": [],
            "objectOnHex": 0,
            "hasObject": false,
            "isWalkable": true,
            "isFlyable": true,
            "isSwimmable": false
        },
        {
            "Q": 8,
            "R": 3,
            "S": -11,
            "TerrainType": 3,
            "FeatureType": 0,
            "effects": [],
            "objectOnHex": 0,
            "hasObject": false,
            "isWalkable": true,
            "isFlyable": true,
            "isSwimmable": false
        },
        {
            "Q": 8,
            "R": 4,
            "S": -12,
            "TerrainType": 3,
            "FeatureType": 0,
            "effects": [],
            "objectOnHex": 0,
            "hasObject": false,
            "isWalkable": true,
            "isFlyable": true,
            "isSwimmable": false
        },
        {
            "Q": 8,
            "R": 5,
            "S": -13,
            "TerrainType": 2,
            "FeatureType": 0,
            "effects": [],
            "objectOnHex": 0,
            "hasObject": false,
            "isWalkable": false,
            "isFlyable": true,
            "isSwimmable": true
        },
        {
            "Q": 8,
            "R": 6,
            "S": -14,
            "TerrainType": 2,
            "FeatureType": 0,
            "effects": [],
            "objectOnHex": 0,
            "hasObject": false,
            "isWalkable": false,
            "isFlyable": true,
            "isSwimmable": true
        },
        {
            "Q": 8,
            "R": 7,
            "S": -15,
            "TerrainType": 2,
            "FeatureType": 0,
            "effects": [],
            "objectOnHex": 0,
            "hasObject": false,
            "isWalkable": false,
            "isFlyable": true,
            "isSwimmable": true
        },
        {
            "Q": 8,
            "R": 8,
            "S": -16,
            "TerrainType": 2,
            "FeatureType": 0,
            "effects": [],
            "objectOnHex": 0,
            "hasObject": false,
            "isWalkable": false,
            "isFlyable": true,
            "isSwimmable": true
        },
        {
            "Q": 8,
            "R": 9,
            "S": -17,
            "TerrainType": 3,
            "FeatureType": 0,
            "effects": [],
            "objectOnHex": 9,
            "hasObject": false,
            "isWalkable": true,
            "isFlyable": true,
            "isSwimmable": false
        },
        {
            "Q": 8,
            "R": 10,
            "S": -18,
            "TerrainType": 3,
            "FeatureType": 0,
            "effects": [],
            "objectOnHex": 0,
            "hasObject": false,
            "isWalkable": true,
            "isFlyable": true,
            "isSwimmable": false
        },
        {
            "Q": 8,
            "R": 11,
            "S": -19,
            "TerrainType": 3,
            "FeatureType": 0,
            "effects": [],
            "objectOnHex": 0,
            "hasObject": false,
            "isWalkable": true,
            "isFlyable": true,
            "isSwimmable": false
        },
        {
            "Q": 9,
            "R": 0,
            "S": -9,
            "TerrainType": 0,
            "FeatureType": 2,
            "effects": [],
            "objectOnHex": 12,
            "hasObject": true,
            "isWalkable": true,
            "isFlyable": true,
            "isSwimmable": false
        },
        {
            "Q": 9,
            "R": 1,
            "S": -10,
            "TerrainType": 0,
            "FeatureType": 0,
            "effects": [],
            "objectOnHex": 0,
            "hasObject": false,
            "isWalkable": true,
            "isFlyable": true,
            "isSwimmable": false
        },
        {
            "Q": 9,
            "R": 2,
            "S": -11,
            "TerrainType": 3,
            "FeatureType": 0,
            "effects": [],
            "objectOnHex": 0,
            "hasObject": false,
            "isWalkable": true,
            "isFlyable": true,
            "isSwimmable": false
        },
        {
            "Q": 9,
            "R": 3,
            "S": -12,
            "TerrainType": 2,
            "FeatureType": 0,
            "effects": [],
            "objectOnHex": 0,
            "hasObject": false,
            "isWalkable": false,
            "isFlyable": true,
            "isSwimmable": true
        },
        {
            "Q": 9,
            "R": 4,
            "S": -13,
            "TerrainType": 2,
            "FeatureType": 0,
            "effects": [],
            "objectOnHex": 0,
            "hasObject": false,
            "isWalkable": false,
            "isFlyable": true,
            "isSwimmable": true
        },
        {
            "Q": 9,
            "R": 5,
            "S": -14,
            "TerrainType": 2,
            "FeatureType": 0,
            "effects": [],
            "objectOnHex": 0,
            "hasObject": false,
            "isWalkable": false,
            "isFlyable": true,
            "isSwimmable": true
        },
        {
            "Q": 9,
            "R": 6,
            "S": -15,
            "TerrainType": 2,
            "FeatureType": 0,
            "effects": [],
            "objectOnHex": 0,
            "hasObject": false,
            "isWalkable": false,
            "isFlyable": true,
            "isSwimmable": true
        },
        {
            "Q": 9,
            "R": 7,
            "S": -16,
            "TerrainType": 2,
            "FeatureType": 0,
            "effects": [],
            "objectOnHex": 0,
            "hasObject": false,
            "isWalkable": false,
            "isFlyable": true,
            "isSwimmable": true
        },
        {
            "Q": 9,
            "R": 8,
            "S": -17,
            "TerrainType": 3,
            "FeatureType": 0,
            "effects": [],
            "objectOnHex": 0,
            "hasObject": false,
            "isWalkable": true,
            "isFlyable": true,
            "isSwimmable": false
        },
        {
            "Q": 9,
            "R": 9,
            "S": -18,
            "TerrainType": 3,
            "FeatureType": 0,
            "effects": [],
            "objectOnHex": 0,
            "hasObject": false,
            "isWalkable": true,
            "isFlyable": true,
            "isSwimmable": false
        },
        {
            "Q": 9,
            "R": 10,
            "S": -19,
            "TerrainType": 3,
            "FeatureType": 0,
            "effects": [],
            "objectOnHex": 0,
            "hasObject": false,
            "isWalkable": true,
            "isFlyable": true,
            "isSwimmable": false
        },
        {
            "Q": 9,
            "R": 11,
            "S": -20,
            "TerrainType": 0,
            "FeatureType": 0,
            "effects": [],
            "objectOnHex": 0,
            "hasObject": false,
            "isWalkable": true,
            "isFlyable": true,
            "isSwimmable": false
        },
        {
            "Q": 10,
            "R": 0,
            "S": -10,
            "TerrainType": 0,
            "FeatureType": 1,
            "effects": [],
            "objectOnHex": 0,
            "hasObject": false,
            "isWalkable": true,
            "isFlyable": true,
            "isSwimmable": false
        },
        {
            "Q": 10,
            "R": 1,
            "S": -11,
            "TerrainType": 3,
            "FeatureType": 0,
            "effects": [],
            "objectOnHex": 0,
            "hasObject": false,
            "isWalkable": true,
            "isFlyable": true,
            "isSwimmable": false
        },
        {
            "Q": 10,
            "R": 2,
            "S": -12,
            "TerrainType": 2,
            "FeatureType": 0,
            "effects": [],
            "objectOnHex": 0,
            "hasObject": false,
            "isWalkable": false,
            "isFlyable": true,
            "isSwimmable": true
        },
        {
            "Q": 10,
            "R": 3,
            "S": -13,
            "TerrainType": 2,
            "FeatureType": 0,
            "effects": [],
            "objectOnHex": 0,
            "hasObject": false,
            "isWalkable": false,
            "isFlyable": true,
            "isSwimmable": true
        },
        {
            "Q": 10,
            "R": 4,
            "S": -14,
            "TerrainType": 2,
            "FeatureType": 0,
            "effects": [],
            "objectOnHex": 0,
            "hasObject": false,
            "isWalkable": false,
            "isFlyable": true,
            "isSwimmable": true
        },
        {
            "Q": 10,
            "R": 5,
            "S": -15,
            "TerrainType": 2,
            "FeatureType": 0,
            "effects": [],
            "objectOnHex": 0,
            "hasObject": false,
            "isWalkable": false,
            "isFlyable": true,
            "isSwimmable": true
        },
        {
            "Q": 10,
            "R": 6,
            "S": -16,
            "TerrainType": 2,
            "FeatureType": 0,
            "effects": [],
            "objectOnHex": 0,
            "hasObject": false,
            "isWalkable": false,
            "isFlyable": true,
            "isSwimmable": true
        },
        {
            "Q": 10,
            "R": 7,
            "S": -17,
            "TerrainType": 3,
            "FeatureType": 0,
            "effects": [],
            "objectOnHex": 9,
            "hasObject": false,
            "isWalkable": true,
            "isFlyable": true,
            "isSwimmable": false
        },
        {
            "Q": 10,
            "R": 8,
            "S": -18,
            "TerrainType": 3,
            "FeatureType": 0,
            "effects": [],
            "objectOnHex": 0,
            "hasObject": false,
            "isWalkable": true,
            "isFlyable": true,
            "isSwimmable": false
        },
        {
            "Q": 10,
            "R": 9,
            "S": -19,
            "TerrainType": 3,
            "FeatureType": 0,
            "effects": [],
            "objectOnHex": 0,
            "hasObject": false,
            "isWalkable": true,
            "isFlyable": true,
            "isSwimmable": false
        },
        {
            "Q": 10,
            "R": 10,
            "S": -20,
            "TerrainType": 0,
            "FeatureType": 0,
            "effects": [],
            "objectOnHex": 0,
            "hasObject": false,
            "isWalkable": true,
            "isFlyable": true,
            "isSwimmable": false
        },
        {
            "Q": 10,
            "R": 11,
            "S": -21,
            "TerrainType": 0,
            "FeatureType": 3,
            "effects": [],
            "objectOnHex": 14,
            "hasObject": true,
            "isWalkable": true,
            "isFlyable": true,
            "isSwimmable": false
        },
        {
            "Q": 11,
            "R": 0,
            "S": -11,
            "TerrainType": 0,
            "FeatureType": 0,
            "effects": [],
            "objectOnHex": 0,
            "hasObject": false,
            "isWalkable": true,
            "isFlyable": true,
            "isSwimmable": false
        },
        {
            "Q": 11,
            "R": 1,
            "S": -12,
            "TerrainType": 0,
            "FeatureType": 0,
            "effects": [],
            "objectOnHex": 0,
            "hasObject": false,
            "isWalkable": true,
            "isFlyable": true,
            "isSwimmable": false
        },
        {
            "Q": 11,
            "R": 2,
            "S": -13,
            "TerrainType": 2,
            "FeatureType": 0,
            "effects": [],
            "objectOnHex": 0,
            "hasObject": false,
            "isWalkable": false,
            "isFlyable": true,
            "isSwimmable": true
        },
        {
            "Q": 11,
            "R": 3,
            "S": -14,
            "TerrainType": 2,
            "FeatureType": 0,
            "effects": [],
            "objectOnHex": 0,
            "hasObject": false,
            "isWalkable": false,
            "isFlyable": true,
            "isSwimmable": true
        },
        {
            "Q": 11,
            "R": 4,
            "S": -15,
            "TerrainType": 2,
            "FeatureType": 0,
            "effects": [],
            "objectOnHex": 0,
            "hasObject": false,
            "isWalkable": false,
            "isFlyable": true,
            "isSwimmable": true
        },
        {
            "Q": 11,
            "R": 5,
            "S": -16,
            "TerrainType": 2,
            "FeatureType": 0,
            "effects": [],
            "objectOnHex": 0,
            "hasObject": false,
            "isWalkable": false,
            "isFlyable": true,
            "isSwimmable": true
        },
        {
            "Q": 11,
            "R": 6,
            "S": -17,
            "TerrainType": 3,
            "FeatureType": 0,
            "effects": [],
            "objectOnHex": 0,
            "hasObject": false,
            "isWalkable": true,
            "isFlyable": true,
            "isSwimmable": false
        },
        {
            "Q": 11,
            "R": 7,
            "S": -18,
            "TerrainType": 3,
            "FeatureType": 0,
            "effects": [],
            "objectOnHex": 0,
            "hasObject": false,
            "isWalkable": true,
            "isFlyable": true,
            "isSwimmable": false
        },
        {
            "Q": 11,
            "R": 8,
            "S": -19,
            "TerrainType": 3,
            "FeatureType": 0,
            "effects": [],
            "objectOnHex": 0,
            "hasObject": false,
            "isWalkable": true,
            "isFlyable": true,
            "isSwimmable": false
        },
        {
            "Q": 11,
            "R": 9,
            "S": -20,
            "TerrainType": 0,
            "FeatureType": 0,
            "effects": [],
            "objectOnHex": 0,
            "hasObject": false,
            "isWalkable": true,
            "isFlyable": true,
            "isSwimmable": false
        },
        {
            "Q": 11,
            "R": 10,
            "S": -21,
            "TerrainType": 0,
            "FeatureType": 3,
            "effects": [],
            "objectOnHex": 14,
            "hasObject": true,
            "isWalkable": true,
            "isFlyable": true,
            "isSwimmable": false
        },
        {
            "Q": 11,
            "R": 11,
            "S": -22,
            "TerrainType": 0,
            "FeatureType": 3,
            "effects": [],
            "objectOnHex": 14,
            "hasObject": true,
            "isWalkable": true,
            "isFlyable": true,
            "isSwimmable": false
        }
    ],
    "columnsNumber": 12,
    "rowsNumber": 12
}