%YAML 1.1
%TAG !u! tag:unity3d.com,2011:
--- !u!1045 &1
EditorBuildSettings:
  m_ObjectHideFlags: 0
  serializedVersion: 2
  m_Scenes:
  - enabled: 1
    path: Assets/Scenes/Menu.unity
    guid: 037faa9dd8345ec428af10e3a3e5c5be
  - enabled: 1
    path: Assets/Scenes/Instructions.unity
    guid: 7c3275ec65221844d937fb1c5d844309
  - enabled: 1
    path: Assets/Scenes/Tutorials/Tutorial0.unity
    guid: 95cc7e1d21e132d49a25060e2a1fe1f5
  - enabled: 1
    path: Assets/Scenes/Tutorials/Tutorial1.unity
    guid: 47f3fe1260b3fa044bb55e05e53e32d4
  - enabled: 1
    path: Assets/Scenes/Tutorials/Tutorial2.unity
    guid: 9e5fc1734243bae4bbb9ce99744cf087
  - enabled: 1
    path: Assets/Scenes/Tutorials/Tutorial3.unity
    guid: a93dff91cda79df41bb5c5cfcb90c0a9
  - enabled: 1
    path: Assets/Scenes/Tutorials/Tutorial4.unity
    guid: 05a6eed11804da64f90dfc3af962d88f
  - enabled: 1
    path: Assets/Scenes/Map1.unity
    guid: 9fc0d4010bbf28b4594072e72b8655ab
  - enabled: 1
    path: Assets/Scenes/Map2.unity
    guid: d098fdbb15e99fe4481a62260cb02dec
  - enabled: 1
    path: Assets/Scenes/Map3.unity
    guid: 6a8fdb549ca68d64aa0e8b809e273878
  - enabled: 1
    path: Assets/Scenes/Map4.unity
    guid: 32532088b87c89e488c61da3c746e2e1
  m_configObjects: {}
