%YAML 1.1
%TAG !u! tag:unity3d.com,2011:
--- !u!1 &8874099206736499458
GameObject:
  m_ObjectHideFlags: 0
  m_CorrespondingSourceObject: {fileID: 0}
  m_PrefabInstance: {fileID: 0}
  m_PrefabAsset: {fileID: 0}
  serializedVersion: 6
  m_Component:
  - component: {fileID: 4637961338386875375}
  - component: {fileID: 3495810536300627193}
  m_Layer: 0
  m_Name: EffectRecharge
  m_TagString: Untagged
  m_Icon: {fileID: 0}
  m_NavMeshLayer: 0
  m_StaticEditorFlags: 0
  m_IsActive: 1
--- !u!4 &4637961338386875375
Transform:
  m_ObjectHideFlags: 0
  m_CorrespondingSourceObject: {fileID: 0}
  m_PrefabInstance: {fileID: 0}
  m_PrefabAsset: {fileID: 0}
  m_GameObject: {fileID: 8874099206736499458}
  m_LocalRotation: {x: 0, y: 0, z: 0, w: 1}
  m_LocalPosition: {x: 0, y: 0, z: 0}
  m_LocalScale: {x: 1, y: 1, z: 1}
  m_Children:
  - {fileID: 3131603686669851037}
  m_Father: {fileID: 0}
  m_RootOrder: 0
  m_LocalEulerAnglesHint: {x: 0, y: 0, z: 0}
--- !u!114 &3495810536300627193
MonoBehaviour:
  m_ObjectHideFlags: 0
  m_CorrespondingSourceObject: {fileID: 0}
  m_PrefabInstance: {fileID: 0}
  m_PrefabAsset: {fileID: 0}
  m_GameObject: {fileID: 8874099206736499458}
  m_Enabled: 1
  m_EditorHideFlags: 0
  m_Script: {fileID: 11500000, guid: e7b93db1dca0ef245a2131052163c39c, type: 3}
  m_Name: 
  m_EditorClassIdentifier: 
  target: {fileID: 0}
  caster: {fileID: 0}
  particles: {fileID: 3006895940583930137}
  doTweenDuration: 0
--- !u!1001 &3133219267646892961
PrefabInstance:
  m_ObjectHideFlags: 0
  serializedVersion: 2
  m_Modification:
    m_TransformParent: {fileID: 4637961338386875375}
    m_Modifications:
    - target: {fileID: 1525317160642690, guid: f980f35b2665e65409a449e52e961c09, type: 3}
      propertyPath: m_Name
      value: Charge_01.3.1 Fairydust Noise
      objectReference: {fileID: 0}
    - target: {fileID: 4185448897458748, guid: f980f35b2665e65409a449e52e961c09, type: 3}
      propertyPath: m_LocalPosition.x
      value: 0
      objectReference: {fileID: 0}
    - target: {fileID: 4185448897458748, guid: f980f35b2665e65409a449e52e961c09, type: 3}
      propertyPath: m_LocalPosition.y
      value: 0
      objectReference: {fileID: 0}
    - target: {fileID: 4185448897458748, guid: f980f35b2665e65409a449e52e961c09, type: 3}
      propertyPath: m_LocalPosition.z
      value: 0
      objectReference: {fileID: 0}
    - target: {fileID: 4185448897458748, guid: f980f35b2665e65409a449e52e961c09, type: 3}
      propertyPath: m_LocalRotation.x
      value: 0
      objectReference: {fileID: 0}
    - target: {fileID: 4185448897458748, guid: f980f35b2665e65409a449e52e961c09, type: 3}
      propertyPath: m_LocalRotation.y
      value: 0
      objectReference: {fileID: 0}
    - target: {fileID: 4185448897458748, guid: f980f35b2665e65409a449e52e961c09, type: 3}
      propertyPath: m_LocalRotation.z
      value: 0
      objectReference: {fileID: 0}
    - target: {fileID: 4185448897458748, guid: f980f35b2665e65409a449e52e961c09, type: 3}
      propertyPath: m_LocalRotation.w
      value: 1
      objectReference: {fileID: 0}
    - target: {fileID: 4185448897458748, guid: f980f35b2665e65409a449e52e961c09, type: 3}
      propertyPath: m_RootOrder
      value: 0
      objectReference: {fileID: 0}
    - target: {fileID: 4185448897458748, guid: f980f35b2665e65409a449e52e961c09, type: 3}
      propertyPath: m_LocalEulerAnglesHint.x
      value: 0
      objectReference: {fileID: 0}
    - target: {fileID: 4185448897458748, guid: f980f35b2665e65409a449e52e961c09, type: 3}
      propertyPath: m_LocalEulerAnglesHint.y
      value: 0
      objectReference: {fileID: 0}
    - target: {fileID: 4185448897458748, guid: f980f35b2665e65409a449e52e961c09, type: 3}
      propertyPath: m_LocalEulerAnglesHint.z
      value: 0
      objectReference: {fileID: 0}
    - target: {fileID: 4185448897458748, guid: f980f35b2665e65409a449e52e961c09, type: 3}
      propertyPath: m_LocalScale.x
      value: 0.06125331
      objectReference: {fileID: 0}
    - target: {fileID: 4185448897458748, guid: f980f35b2665e65409a449e52e961c09, type: 3}
      propertyPath: m_LocalScale.y
      value: 0.06125331
      objectReference: {fileID: 0}
    - target: {fileID: 4185448897458748, guid: f980f35b2665e65409a449e52e961c09, type: 3}
      propertyPath: m_LocalScale.z
      value: 0.06125331
      objectReference: {fileID: 0}
    - target: {fileID: 198511891493840352, guid: f980f35b2665e65409a449e52e961c09,
        type: 3}
      propertyPath: scalingMode
      value: 0
      objectReference: {fileID: 0}
    - target: {fileID: 198666082906608312, guid: f980f35b2665e65409a449e52e961c09,
        type: 3}
      propertyPath: scalingMode
      value: 0
      objectReference: {fileID: 0}
    - target: {fileID: 198666082906608312, guid: f980f35b2665e65409a449e52e961c09,
        type: 3}
      propertyPath: lengthInSec
      value: 3
      objectReference: {fileID: 0}
    - target: {fileID: 198666082906608312, guid: f980f35b2665e65409a449e52e961c09,
        type: 3}
      propertyPath: looping
      value: 0
      objectReference: {fileID: 0}
    - target: {fileID: 198763842011823968, guid: f980f35b2665e65409a449e52e961c09,
        type: 3}
      propertyPath: scalingMode
      value: 0
      objectReference: {fileID: 0}
    - target: {fileID: 198853581665944716, guid: f980f35b2665e65409a449e52e961c09,
        type: 3}
      propertyPath: scalingMode
      value: 0
      objectReference: {fileID: 0}
    - target: {fileID: 198942769528202016, guid: f980f35b2665e65409a449e52e961c09,
        type: 3}
      propertyPath: scalingMode
      value: 0
      objectReference: {fileID: 0}
    m_RemovedComponents: []
  m_SourcePrefab: {fileID: 100100000, guid: f980f35b2665e65409a449e52e961c09, type: 3}
--- !u!4 &3131603686669851037 stripped
Transform:
  m_CorrespondingSourceObject: {fileID: 4185448897458748, guid: f980f35b2665e65409a449e52e961c09,
    type: 3}
  m_PrefabInstance: {fileID: 3133219267646892961}
  m_PrefabAsset: {fileID: 0}
--- !u!198 &3006895940583930137 stripped
ParticleSystem:
  m_CorrespondingSourceObject: {fileID: 198666082906608312, guid: f980f35b2665e65409a449e52e961c09,
    type: 3}
  m_PrefabInstance: {fileID: 3133219267646892961}
  m_PrefabAsset: {fileID: 0}
