%YAML 1.1
%TAG !u! tag:unity3d.com,2011:
--- !u!1 &9017372425499340037
GameObject:
  m_ObjectHideFlags: 0
  m_CorrespondingSourceObject: {fileID: 0}
  m_PrefabInstance: {fileID: 0}
  m_PrefabAsset: {fileID: 0}
  serializedVersion: 6
  m_Component:
  - component: {fileID: 5070594703043018216}
  - component: {fileID: 3927309773964638974}
  m_Layer: 0
  m_Name: Effect1
  m_TagString: Untagged
  m_Icon: {fileID: 0}
  m_NavMeshLayer: 0
  m_StaticEditorFlags: 0
  m_IsActive: 1
--- !u!4 &5070594703043018216
Transform:
  m_ObjectHideFlags: 0
  m_CorrespondingSourceObject: {fileID: 0}
  m_PrefabInstance: {fileID: 0}
  m_PrefabAsset: {fileID: 0}
  m_GameObject: {fileID: 9017372425499340037}
  m_LocalRotation: {x: 0, y: 0, z: 0, w: 1}
  m_LocalPosition: {x: 0, y: 0, z: 0}
  m_LocalScale: {x: 1, y: 1, z: 1}
  m_Children:
  - {fileID: 7882765561187625843}
  m_Father: {fileID: 0}
  m_RootOrder: 0
  m_LocalEulerAnglesHint: {x: 0, y: 0, z: 0}
--- !u!114 &3927309773964638974
MonoBehaviour:
  m_ObjectHideFlags: 0
  m_CorrespondingSourceObject: {fileID: 0}
  m_PrefabInstance: {fileID: 0}
  m_PrefabAsset: {fileID: 0}
  m_GameObject: {fileID: 9017372425499340037}
  m_Enabled: 1
  m_EditorHideFlags: 0
  m_Script: {fileID: 11500000, guid: e7b93db1dca0ef245a2131052163c39c, type: 3}
  m_Name: 
  m_EditorClassIdentifier: 
  target: {fileID: 0}
  caster: {fileID: 0}
  particles: {fileID: 7882765561207025203}
  doTweenDuration: 1
--- !u!1001 &7882765561187496441
PrefabInstance:
  m_ObjectHideFlags: 0
  serializedVersion: 2
  m_Modification:
    m_TransformParent: {fileID: 5070594703043018216}
    m_Modifications:
    - target: {fileID: 100010, guid: ef20b219f31a7c94c98a1fb42c491ea6, type: 3}
      propertyPath: m_Name
      value: L_Blue_fire
      objectReference: {fileID: 0}
    - target: {fileID: 400010, guid: ef20b219f31a7c94c98a1fb42c491ea6, type: 3}
      propertyPath: m_LocalPosition.x
      value: 0
      objectReference: {fileID: 0}
    - target: {fileID: 400010, guid: ef20b219f31a7c94c98a1fb42c491ea6, type: 3}
      propertyPath: m_LocalPosition.y
      value: 0
      objectReference: {fileID: 0}
    - target: {fileID: 400010, guid: ef20b219f31a7c94c98a1fb42c491ea6, type: 3}
      propertyPath: m_LocalPosition.z
      value: 0
      objectReference: {fileID: 0}
    - target: {fileID: 400010, guid: ef20b219f31a7c94c98a1fb42c491ea6, type: 3}
      propertyPath: m_LocalRotation.x
      value: 0
      objectReference: {fileID: 0}
    - target: {fileID: 400010, guid: ef20b219f31a7c94c98a1fb42c491ea6, type: 3}
      propertyPath: m_LocalRotation.y
      value: 0
      objectReference: {fileID: 0}
    - target: {fileID: 400010, guid: ef20b219f31a7c94c98a1fb42c491ea6, type: 3}
      propertyPath: m_LocalRotation.z
      value: 0
      objectReference: {fileID: 0}
    - target: {fileID: 400010, guid: ef20b219f31a7c94c98a1fb42c491ea6, type: 3}
      propertyPath: m_LocalRotation.w
      value: 1
      objectReference: {fileID: 0}
    - target: {fileID: 400010, guid: ef20b219f31a7c94c98a1fb42c491ea6, type: 3}
      propertyPath: m_RootOrder
      value: 0
      objectReference: {fileID: 0}
    - target: {fileID: 400010, guid: ef20b219f31a7c94c98a1fb42c491ea6, type: 3}
      propertyPath: m_LocalEulerAnglesHint.x
      value: 0
      objectReference: {fileID: 0}
    - target: {fileID: 400010, guid: ef20b219f31a7c94c98a1fb42c491ea6, type: 3}
      propertyPath: m_LocalEulerAnglesHint.y
      value: 0
      objectReference: {fileID: 0}
    - target: {fileID: 400010, guid: ef20b219f31a7c94c98a1fb42c491ea6, type: 3}
      propertyPath: m_LocalEulerAnglesHint.z
      value: 0
      objectReference: {fileID: 0}
    - target: {fileID: 400010, guid: ef20b219f31a7c94c98a1fb42c491ea6, type: 3}
      propertyPath: m_LocalScale.x
      value: 0.370359
      objectReference: {fileID: 0}
    - target: {fileID: 400010, guid: ef20b219f31a7c94c98a1fb42c491ea6, type: 3}
      propertyPath: m_LocalScale.y
      value: 0.370359
      objectReference: {fileID: 0}
    - target: {fileID: 400010, guid: ef20b219f31a7c94c98a1fb42c491ea6, type: 3}
      propertyPath: m_LocalScale.z
      value: 0.370359
      objectReference: {fileID: 0}
    - target: {fileID: 19800000, guid: ef20b219f31a7c94c98a1fb42c491ea6, type: 3}
      propertyPath: scalingMode
      value: 0
      objectReference: {fileID: 0}
    - target: {fileID: 19800002, guid: ef20b219f31a7c94c98a1fb42c491ea6, type: 3}
      propertyPath: scalingMode
      value: 0
      objectReference: {fileID: 0}
    - target: {fileID: 19800004, guid: ef20b219f31a7c94c98a1fb42c491ea6, type: 3}
      propertyPath: scalingMode
      value: 0
      objectReference: {fileID: 0}
    - target: {fileID: 19800006, guid: ef20b219f31a7c94c98a1fb42c491ea6, type: 3}
      propertyPath: scalingMode
      value: 0
      objectReference: {fileID: 0}
    - target: {fileID: 19800008, guid: ef20b219f31a7c94c98a1fb42c491ea6, type: 3}
      propertyPath: scalingMode
      value: 0
      objectReference: {fileID: 0}
    - target: {fileID: 19800012, guid: ef20b219f31a7c94c98a1fb42c491ea6, type: 3}
      propertyPath: InitialModule.startSizeY.minMaxState
      value: 3
      objectReference: {fileID: 0}
    - target: {fileID: 19800012, guid: ef20b219f31a7c94c98a1fb42c491ea6, type: 3}
      propertyPath: InitialModule.startSizeZ.minMaxState
      value: 3
      objectReference: {fileID: 0}
    - target: {fileID: 19800012, guid: ef20b219f31a7c94c98a1fb42c491ea6, type: 3}
      propertyPath: InitialModule.startRotationX.minMaxState
      value: 3
      objectReference: {fileID: 0}
    - target: {fileID: 19800012, guid: ef20b219f31a7c94c98a1fb42c491ea6, type: 3}
      propertyPath: InitialModule.startRotationY.minMaxState
      value: 3
      objectReference: {fileID: 0}
    - target: {fileID: 19800012, guid: ef20b219f31a7c94c98a1fb42c491ea6, type: 3}
      propertyPath: scalingMode
      value: 0
      objectReference: {fileID: 0}
    m_RemovedComponents: []
  m_SourcePrefab: {fileID: 100100000, guid: ef20b219f31a7c94c98a1fb42c491ea6, type: 3}
--- !u!4 &7882765561187625843 stripped
Transform:
  m_CorrespondingSourceObject: {fileID: 400010, guid: ef20b219f31a7c94c98a1fb42c491ea6,
    type: 3}
  m_PrefabInstance: {fileID: 7882765561187496441}
  m_PrefabAsset: {fileID: 0}
--- !u!198 &7882765561207025203 stripped
ParticleSystem:
  m_CorrespondingSourceObject: {fileID: 19800010, guid: ef20b219f31a7c94c98a1fb42c491ea6,
    type: 3}
  m_PrefabInstance: {fileID: 7882765561187496441}
  m_PrefabAsset: {fileID: 0}
