%YAML 1.1
%TAG !u! tag:unity3d.com,2011:
--- !u!1001 &5492342108840905320
PrefabInstance:
  m_ObjectHideFlags: 0
  serializedVersion: 2
  m_Modification:
    m_TransformParent: {fileID: 0}
    m_Modifications:
    - target: {fileID: 6840353447127551287, guid: 1fa4e55e9d80ff14f9401bc1d67fecab,
        type: 3}
      propertyPath: m_LocalPosition.x
      value: 0
      objectReference: {fileID: 0}
    - target: {fileID: 6840353447127551287, guid: 1fa4e55e9d80ff14f9401bc1d67fecab,
        type: 3}
      propertyPath: m_LocalPosition.y
      value: 0
      objectReference: {fileID: 0}
    - target: {fileID: 6840353447127551287, guid: 1fa4e55e9d80ff14f9401bc1d67fecab,
        type: 3}
      propertyPath: m_LocalPosition.z
      value: 0
      objectReference: {fileID: 0}
    - target: {fileID: 6840353447127551287, guid: 1fa4e55e9d80ff14f9401bc1d67fecab,
        type: 3}
      propertyPath: m_LocalRotation.x
      value: 0
      objectReference: {fileID: 0}
    - target: {fileID: 6840353447127551287, guid: 1fa4e55e9d80ff14f9401bc1d67fecab,
        type: 3}
      propertyPath: m_LocalRotation.y
      value: 0
      objectReference: {fileID: 0}
    - target: {fileID: 6840353447127551287, guid: 1fa4e55e9d80ff14f9401bc1d67fecab,
        type: 3}
      propertyPath: m_LocalRotation.z
      value: 0
      objectReference: {fileID: 0}
    - target: {fileID: 6840353447127551287, guid: 1fa4e55e9d80ff14f9401bc1d67fecab,
        type: 3}
      propertyPath: m_LocalRotation.w
      value: 1
      objectReference: {fileID: 0}
    - target: {fileID: 6840353447127551287, guid: 1fa4e55e9d80ff14f9401bc1d67fecab,
        type: 3}
      propertyPath: m_RootOrder
      value: 0
      objectReference: {fileID: 0}
    - target: {fileID: 6840353447127551287, guid: 1fa4e55e9d80ff14f9401bc1d67fecab,
        type: 3}
      propertyPath: m_LocalEulerAnglesHint.x
      value: 0
      objectReference: {fileID: 0}
    - target: {fileID: 6840353447127551287, guid: 1fa4e55e9d80ff14f9401bc1d67fecab,
        type: 3}
      propertyPath: m_LocalEulerAnglesHint.y
      value: 0
      objectReference: {fileID: 0}
    - target: {fileID: 6840353447127551287, guid: 1fa4e55e9d80ff14f9401bc1d67fecab,
        type: 3}
      propertyPath: m_LocalEulerAnglesHint.z
      value: 0
      objectReference: {fileID: 0}
    - target: {fileID: 6840353447127551287, guid: 1fa4e55e9d80ff14f9401bc1d67fecab,
        type: 3}
      propertyPath: m_LocalScale.y
      value: 0.2
      objectReference: {fileID: 0}
    - target: {fileID: 6840353447127551287, guid: 1fa4e55e9d80ff14f9401bc1d67fecab,
        type: 3}
      propertyPath: m_LocalScale.z
      value: 0.4
      objectReference: {fileID: 0}
    - target: {fileID: 6840353447127551287, guid: 1fa4e55e9d80ff14f9401bc1d67fecab,
        type: 3}
      propertyPath: m_LocalScale.x
      value: 0.4
      objectReference: {fileID: 0}
    - target: {fileID: 7932063427683504590, guid: 1fa4e55e9d80ff14f9401bc1d67fecab,
        type: 3}
      propertyPath: m_Name
      value: Seed
      objectReference: {fileID: 0}
    m_RemovedComponents: []
  m_SourcePrefab: {fileID: 100100000, guid: 1fa4e55e9d80ff14f9401bc1d67fecab, type: 3}
